%YAML 1.1
%TAG !u! tag:unity3d.com,2011:
--- !u!21 &2100000
Material:
  serializedVersion: 6
  m_ObjectHideFlags: 0
  m_CorrespondingSourceObject: {fileID: 0}
  m_PrefabInstance: {fileID: 0}
  m_PrefabAsset: {fileID: 0}
  m_Name: Windows_glass_mobile
  m_Shader: {fileID: 7, guid: 0000000000000000f000000000000000, type: 0}
  m_ShaderKeywords: 
  m_LightmapFlags: 0
  m_EnableInstancingVariants: 0
  m_DoubleSidedGI: 0
  m_CustomRenderQueue: -1
  stringTagMap: {}
  disabledShaderPasses: []
  m_SavedProperties:
    serializedVersion: 3
    m_TexEnvs:
    - _Albedo_smoothness_map_input:
        m_Texture: {fileID: 2800000, guid: 7912cec4979f4b34db233f1e75183309, type: 3}
        m_Scale: {x: 1, y: 1}
        m_Offset: {x: 0, y: 0}
    - _Alpha_cutout_mask_map_input:
        m_Texture: {fileID: 0}
        m_Scale: {x: 1, y: 1}
        m_Offset: {x: 0, y: 0}
    - _Ambient_Occlusion_map_input:
        m_Texture: {fileID: 0}
        m_Scale: {x: 1, y: 1}
        m_Offset: {x: 0, y: 0}
    - _BumpMap:
        m_Texture: {fileID: 0}
        m_Scale: {x: 1, y: 1}
        m_Offset: {x: 0, y: 0}
    - _DetailAlbedoMap:
        m_Texture: {fileID: 0}
        m_Scale: {x: 1, y: 1}
        m_Offset: {x: 0, y: 0}
    - _DetailMask:
        m_Texture: {fileID: 0}
        m_Scale: {x: 1, y: 1}
        m_Offset: {x: 0, y: 0}
    - _DetailNormal_map_inputMap:
        m_Texture: {fileID: 0}
        m_Scale: {x: 1, y: 1}
        m_Offset: {x: 0, y: 0}
    - _Detail_mask_1_map_input:
        m_Texture: {fileID: 0}
        m_Scale: {x: 1, y: 1}
        m_Offset: {x: 0, y: 0}
    - _Detail_mask_2_map_input:
        m_Texture: {fileID: 0}
        m_Scale: {x: 1, y: 1}
        m_Offset: {x: 0, y: 0}
    - _Edge_mask_map_input:
        m_Texture: {fileID: 0}
        m_Scale: {x: 1, y: 1}
        m_Offset: {x: 0, y: 0}
    - _EmissionMap:
        m_Texture: {fileID: 0}
        m_Scale: {x: 1, y: 1}
        m_Offset: {x: 0, y: 0}
    - _Emmisive_mask_map_input:
        m_Texture: {fileID: 2800000, guid: 4603fb72a12fbbc46a7b724ecb4b4c60, type: 3}
        m_Scale: {x: 1, y: 1}
        m_Offset: {x: 0, y: 0}
    - _Emmisvie_map_input:
        m_Texture: {fileID: 0}
        m_Scale: {x: 1, y: 1}
        m_Offset: {x: 0, y: 0}
    - _MainTex:
        m_Texture: {fileID: 0}
        m_Scale: {x: 1, y: 1}
        m_Offset: {x: 0, y: 0}
    - _MetallicGlossMap:
        m_Texture: {fileID: 0}
        m_Scale: {x: 1, y: 1}
        m_Offset: {x: 0, y: 0}
    - _Metallic_Smoothness_map_input:
        m_Texture: {fileID: 0}
        m_Scale: {x: 1, y: 1}
        m_Offset: {x: 0, y: 0}
    - _Normal_map_input:
        m_Texture: {fileID: 0}
        m_Scale: {x: 1, y: 1}
        m_Offset: {x: 0, y: 0}
    - _OcclusionMap:
        m_Texture: {fileID: 0}
        m_Scale: {x: 1, y: 1}
        m_Offset: {x: 0, y: 0}
    - _ParallaxMap:
        m_Texture: {fileID: 0}
        m_Scale: {x: 1, y: 1}
        m_Offset: {x: 0, y: 0}
    - _TextureSample0:
        m_Texture: {fileID: 2800000, guid: 0f8dc076c749f13478e921de7fac9e25, type: 3}
        m_Scale: {x: 1, y: 1}
        m_Offset: {x: 0, y: 0}
    - _TextureSample1:
        m_Texture: {fileID: 2800000, guid: 675d9ecbe9cbb72459297a466ffd486c, type: 3}
        m_Scale: {x: 1, y: 1}
        m_Offset: {x: 0, y: 0}
    - _Windnoisemap:
        m_Texture: {fileID: 0}
        m_Scale: {x: 1, y: 1}
        m_Offset: {x: 0, y: 0}
    - _Window_emmisive:
        m_Texture: {fileID: 0}
        m_Scale: {x: 1, y: 1}
        m_Offset: {x: 0, y: 0}
    - _Wood_Plank_grayscale:
        m_Texture: {fileID: 2800000, guid: 7131ee9329355134395b1e266c47f9d1, type: 3}
        m_Scale: {x: 1, y: 1}
        m_Offset: {x: 0, y: 0}
    - _Wood_Plank_normal:
        m_Texture: {fileID: 2800000, guid: 7f1158dee0c80674fa31d8fbc51155bf, type: 3}
        m_Scale: {x: 1, y: 1}
        m_Offset: {x: 0, y: 0}
    - _Wood_Planks_AO:
        m_Texture: {fileID: 2800000, guid: d751258cf9404c949afe780a050af5af, type: 3}
        m_Scale: {x: 1, y: 1}
        m_Offset: {x: 0, y: 0}
    - _Wood_normal:
        m_Texture: {fileID: 0}
        m_Scale: {x: 1, y: 1}
        m_Offset: {x: 0, y: 0}
    - _Wood_planks_roughness:
        m_Texture: {fileID: 2800000, guid: 2365b5ad6a2357c42b9d8efadc9d73bb, type: 3}
        m_Scale: {x: 1, y: 1}
        m_Offset: {x: 0, y: 0}
    - _texcoord:
        m_Texture: {fileID: 0}
        m_Scale: {x: 1, y: 1}
        m_Offset: {x: 0, y: 0}
    m_Floats:
    - _AO_shift: 0.677
    - _Alpha_cutout_level: 0.448
    - _Alpha_cutout_mask_map_input_level: 1
    - _BumpScale: 1
    - _Cutoff: 0.5
    - _DetailNormal_map_inputMapScale: 1
    - _Detail_2_level: 0
    - _Detail_Smoothness_shift: 0
    - _Detail_level: 0
    - _DstBlend: 0
    - _Edge_wear: 0.824
    - _Emmisive_intensity: 44.4
    - _Emmisive_level: 5
    - _Float0: 0
    - _GlossMapScale: 1
    - _Glossiness: 0.5
    - _GlossyReflections: 1
    - _Material_Smoothness_shift: 1
    - _Metal_object: 0
    - _Metallic: 0
    - _Metalobjectusesmettalicsmoothnesmap: 0
    - _Mettallic_shift: 0
    - _Mode: 0
    - _Normal_intensity: 1
    - _Normal_map_input_intensity: 1
    - _OcclusionStrength: 1
    - _Paint_Smoothness: 1
    - _Paint_level: 0
    - _Paralax_distance: 0.8118443
    - _Parallax: 0.02
    - _SmoothnessTextureChannel: 0
    - _Smoothness_shift: 0.1
    - _SpecularHighlights: 1
    - _SrcBlend: 1
    - _Tilling: 1
    - _UVSec: 0
    - _Wind_power_multiply: 0
    - _Wind_speed: 0
    - _Wood_Smoothness: 0.445
    - _ZWrite: 1
    - __dirty: 0
    m_Colors:
    - _Base_color: {r: 0.3490566, g: 0.3490566, b: 0.3490566, a: 0}
    - _Color: {r: 1, g: 1, b: 1, a: 1}
    - _Detail_2_color: {r: 0, g: 0.9779412, b: 0.7756083, a: 0}
    - _Detail_color: {r: 0, g: 0, b: 0, a: 0}
    - _EmissionColor: {r: 0, g: 0, b: 0, a: 1}
    - _Emmisive_Color: {r: 0.9958418, g: 1, b: 0.6985294, a: 0}
    - _Emmisive_color: {r: 0.9779412, g: 0.9210103, b: 0.68312067, a: 0}
    - _Emmsivie_color: {r: 0.6691177, g: 0.61706764, b: 0.6051579, a: 0}
    - _Material_Tiling: {r: 1, g: 1, b: 1, a: 0}
    - _Wood_color: {r: 0.42745098, g: 0.22745097, b: 0.13725486, a: 0}
    - _paint_Color: {r: 0.42745098, g: 0.22745097, b: 0.13725486, a: 0}
