%YAML 1.1
%TAG !u! tag:unity3d.com,2011:
--- !u!1 &130916
GameObject:
  m_ObjectHideFlags: 0
  m_CorrespondingSourceObject: {fileID: 0}
  m_PrefabInstance: {fileID: 0}
  m_PrefabAsset: {fileID: 0}
  serializedVersion: 6
  m_Component:
  - component: {fileID: 488580}
  - component: {fileID: 11427236}
  m_Layer: 0
  m_Name: ImageTracker
  m_TagString: Untagged
  m_Icon: {fileID: 0}
  m_NavMeshLayer: 0
  m_StaticEditorFlags: 0
  m_IsActive: 1
--- !u!4 &488580
Transform:
  m_ObjectHideFlags: 0
  m_CorrespondingSourceObject: {fileID: 0}
  m_PrefabInstance: {fileID: 0}
  m_PrefabAsset: {fileID: 0}
  m_GameObject: {fileID: 130916}
  m_LocalRotation: {x: 0, y: 0, z: 0, w: 1}
  m_LocalPosition: {x: 0, y: 0, z: 0}
  m_LocalScale: {x: 1, y: 1, z: 1}
  m_Children:
  - {fileID: 494530}
  m_Father: {fileID: 0}
  m_RootOrder: 0
  m_LocalEulerAnglesHint: {x: 0, y: 0, z: 0}
--- !u!114 &11427236
MonoBehaviour:
  m_ObjectHideFlags: 0
  m_CorrespondingSourceObject: {fileID: 0}
  m_PrefabInstance: {fileID: 0}
  m_PrefabAsset: {fileID: 0}
  m_GameObject: {fileID: 130916}
  m_Enabled: 1
  m_EditorHideFlags: 0
  m_Script: {fileID: 822067672, guid: 74f59eb22abf947599d3aecf24b954b2, type: 3}
  m_Name: 
  m_EditorClassIdentifier: 
  OnTargetsLoaded:
    m_PersistentCalls:
      m_Calls: []
    m_TypeName: Wikitude.TrackerBehaviour+OnTargetsLoadedEvent, WikitudeUnityPlugin,
      Version=8.5.0.0, Culture=neutral, PublicKeyToken=null
  OnErrorLoadingTargets:
    m_PersistentCalls:
      m_Calls: []
    m_TypeName: Wikitude.TrackerBehaviour+OnErrorLoadingTargetsEvent, WikitudeUnityPlugin,
      Version=8.5.0.0, Culture=neutral, PublicKeyToken=null
  OnInitializationError:
    m_PersistentCalls:
      m_Calls: []
    m_TypeName: Wikitude.TrackerBehaviour+OnInitializationErrorEvent, WikitudeUnityPlugin,
      Version=8.5.0.0, Culture=neutral, PublicKeyToken=null
  OnExtendedTrackingQualityChanged:
    m_PersistentCalls:
      m_Calls: []
    m_TypeName: Wikitude.ImageTracker+OnExtendedTrackingQualityChangedEvent, WikitudeUnityPlugin,
      Version=8.5.0.0, Culture=neutral, PublicKeyToken=null
  _targetSourceType: 0
  _targetCollectionResource:
    _targetPath: tracker.wtc
    _useCustomURL: 0
    OnFinishLoading:
      m_PersistentCalls:
        m_Calls: []
      m_TypeName: Wikitude.TargetCollectionResource+OnFinishLoadingEvent, WikitudeUnityPlugin,
        Version=8.5.0.0, Culture=neutral, PublicKeyToken=null
    OnErrorLoading:
      m_PersistentCalls:
        m_Calls: []
      m_TypeName: Wikitude.TargetCollectionResource+OnErrorLoadingEvent, WikitudeUnityPlugin,
        Version=8.5.0.0, Culture=neutral, PublicKeyToken=null
  _cloudRecognitionService:
    _clientToken: 
    _groupId: 
    _targetCollectionId: 
    _serverRegion: 0
    _customServerURL: 
    OnInitialized:
      m_PersistentCalls:
        m_Calls: []
      m_TypeName: Wikitude.CloudRecognitionService+OnInitializedEvent, WikitudeUnityPlugin,
        Version=8.5.0.0, Culture=neutral, PublicKeyToken=null
    OnInitializationError:
      m_PersistentCalls:
        m_Calls: []
      m_TypeName: Wikitude.CloudRecognitionService+OnInitializationErrorEvent, WikitudeUnityPlugin,
        Version=8.5.0.0, Culture=neutral, PublicKeyToken=null
    OnRecognitionResponse:
      m_PersistentCalls:
        m_Calls: []
      m_TypeName: Wikitude.CloudRecognitionService+OnRecognitionResponseEvent, WikitudeUnityPlugin,
        Version=8.5.0.0, Culture=neutral, PublicKeyToken=null
    OnRecognitionError:
      m_PersistentCalls:
        m_Calls: []
      m_TypeName: Wikitude.CloudRecognitionService+OnRecognitionErrorEvent, WikitudeUnityPlugin,
        Version=8.5.0.0, Culture=neutral, PublicKeyToken=null
    OnInterruption:
      m_PersistentCalls:
        m_Calls: []
      m_TypeName: Wikitude.CloudRecognitionService+OnInterruptionEvent, WikitudeUnityPlugin,
        Version=8.5.0.0, Culture=neutral, PublicKeyToken=null
  _maximumNumberOfConcurrentTrackableTargets: 1
  _rangeExtension: 2
  _trackerEfficiencyMode: 0
--- !u!1 &131830
GameObject:
  m_ObjectHideFlags: 0
  m_CorrespondingSourceObject: {fileID: 0}
  m_PrefabInstance: {fileID: 0}
  m_PrefabAsset: {fileID: 0}
  serializedVersion: 6
  m_Component:
  - component: {fileID: 494530}
  - component: {fileID: 114000012657538596}
  m_Layer: 0
  m_Name: Trackable
  m_TagString: Untagged
  m_Icon: {fileID: 0}
  m_NavMeshLayer: 0
  m_StaticEditorFlags: 0
  m_IsActive: 1
--- !u!4 &494530
Transform:
  m_ObjectHideFlags: 0
  m_CorrespondingSourceObject: {fileID: 0}
  m_PrefabInstance: {fileID: 0}
  m_PrefabAsset: {fileID: 0}
  m_GameObject: {fileID: 131830}
  m_LocalRotation: {x: 0, y: 0, z: 0, w: 1}
  m_LocalPosition: {x: 0, y: 0, z: 0}
  m_LocalScale: {x: 1, y: 1, z: 1}
  m_Children: []
  m_Father: {fileID: 488580}
  m_RootOrder: 0
  m_LocalEulerAnglesHint: {x: 0, y: 0, z: 0}
--- !u!114 &114000012657538596
MonoBehaviour:
  m_ObjectHideFlags: 0
  m_CorrespondingSourceObject: {fileID: 0}
  m_PrefabInstance: {fileID: 0}
  m_PrefabAsset: {fileID: 0}
  m_GameObject: {fileID: 131830}
  m_Enabled: 1
  m_EditorHideFlags: 0
  m_Script: {fileID: -1550001261, guid: 74f59eb22abf947599d3aecf24b954b2, type: 3}
  m_Name: 
  m_EditorClassIdentifier: 
  _targetPattern: '*'
  _drawable: {fileID: 0}
  _autoToggleVisibility: 1
  _extendedTracking: 1
  _targetsForExtendedTracking:
  - '*'
  OnImageRecognized:
    m_PersistentCalls:
      m_Calls: []
    m_TypeName: Wikitude.ImageTrackable+OnImageRecognizedEvent, WikitudeUnityPlugin,
      Version=8.5.0.0, Culture=neutral, PublicKeyToken=null
  OnImageLost:
    m_PersistentCalls:
      m_Calls: []
    m_TypeName: Wikitude.ImageTrackable+OnImageLostEvent, WikitudeUnityPlugin, Version=8.5.0.0,
      Culture=neutral, PublicKeyToken=null
